{
  "status": "success",
  "meta": {
    "currentPage": 1,
    "totalPages": 5,
    "totalItems": 48,
    "itemsPerPage": 10
  },
  "data": [
    {
      "articleId": 101,
      "title": "Введение в парсинг",
      "publishedAt": "2026-04-05T14:30:00Z",
      "tags": ["программирование", "json", "обучение"]
    },
    {
      "articleId": 102,
      "title": "Основы работы с API",
      "publishedAt": "2026-04-06T09:15:00Z",
      "tags": ["api", "web", "backend"]
    }
  ]
}