{

  "id": 1045,

  "username": "alex_dev",

  "email": "alex.dev@example.com",

  "isActive": true,

  "roles": [

    "user",

    "editor"

  ],

  "preferences": {

    "theme": "dark",

    "notifications": true,

    "language": "ru"

  }

}

{

  "productId": "SKU-99482",

  "name": "Беспроводные наушники",

  "brand": "AudioTech",

  "price": 2999.50,

  "inStock": true,

  "specifications": {

    "color": "black",

    "weightGramms": 250,

    "bluetoothVersion": "5.2"

  },

  "reviews": [

    {

      "author": "Ivan",

      "rating": 5,

      "text": "Отличный звук и долго держат заряд."

    },

    {

      "author": "Anna",

      "rating": 4,

      "text": "Немного давят на уши, но в целом хорошо."

    }

  ]

}

{

  "status": "success",

  "meta": {

    "currentPage": 1,

    "totalPages": 5,

    "totalItems": 48,

    "itemsPerPage": 10

  },

  "data": [

    {

      "articleId": 101,

      "title": "Введение в парсинг",

      "publishedAt": "2026-04-05T14:30:00Z",

      "tags": ["программирование", "json", "обучение"]

    },

    {

      "articleId": 102,

      "title": "Основы работы с API",

      "publishedAt": "2026-04-06T09:15:00Z",

      "tags": ["api", "web", "backend"]

    }

  ]

}
